%YAML 1.1
%TAG !u! tag:unity3d.com,2011:
--- !u!1045 &1
EditorBuildSettings:
  m_ObjectHideFlags: 0
  serializedVersion: 2
  m_Scenes:
  - enabled: 1
    path: Assets/Scenes/MainMenu.unity
    guid: fe53f48d083481a4e84f56e0dace351a
  - enabled: 0
    path: 
    guid: 69575e6f2904c4c7dafafe28c5ec7068
  - enabled: 0
    path: 
    guid: e125c010768dd8d44ae8b1d5d2f7717f
  - enabled: 1
    path: Assets/Scenes/EasyLevel.unity
    guid: 7fad6571bbe00ee47a0023e5eec9a68c
  - enabled: 1
    path: Assets/Scenes/MediumLevel.unity
    guid: ca50c4730b1b858449a14073552d10bb
  - enabled: 1
    path: Assets/Scenes/HardLevel.unity
    guid: bb4b07b5b10596343a87e05d1eee2a5d
